riscv_pipe_implt/riscv_pipe_implt.sim/sim_1/behav/xsim/datapath_tb.vcd
$date
   Tue Aug 12 11:50:14 2025
$end

$version
  2023.2
  $dumpfile ("datapath_tb.vcd") 
$end

$timescale
  1ps
$end

$scope module tb_datapath $end
$var reg 1 ! clk $end
$var reg 1 " reset $end
$var wire 32 # pcf [31:0] $end
$var reg 32 $ instrf [31:0] $end
$var wire 32 % instrd [31:0] $end
$var wire 32 & aluresultm [31:0] $end
$var wire 32 ' writedatam [31:0] $end
$var reg 32 ( readdatam [31:0] $end
$var reg 2 ) resultsrcw [1:0] $end
$var reg 1 * pcjalsrce $end
$var reg 1 + pcsrce $end
$var reg 1 , alusrcae $end
$var reg 2 - alusrcbe [1:0] $end
$var reg 1 . regwritew $end
$var reg 3 / immsrcd [2:0] $end
$var reg 4 0 alucontrole [3:0] $end
$var reg 2 1 forwardae [1:0] $end
$var reg 2 2 forwardbe [1:0] $end
$var reg 1 3 stalld $end
$var reg 1 4 stallf $end
$var reg 1 5 flushd $end
$var reg 1 6 flushe $end
$var wire 1 7 zeroe $end
$var wire 1 8 signe $end
$var wire 5 9 rs1d [4:0] $end
$var wire 5 : rs2d [4:0] $end
$var wire 5 ; rs1e [4:0] $end
$var wire 5 < rs2e [4:0] $end
$var wire 5 = rde [4:0] $end
$var wire 5 > rdm [4:0] $end
$var wire 5 ? rdw [4:0] $end
$var integer 32 @ i [31:0] $end
$var integer 32 A cycle_count [31:0] $end
$var integer 32 B error_count [31:0] $end
$var reg 1 C stop_sim $end
$scope module dut $end
$var wire 1 D clk $end
$var wire 1 E reset $end
$var wire 2 F resultsrcw [1:0] $end
$var wire 1 G pcjalsrce $end
$var wire 1 H pcsrce $end
$var wire 1 I alusrcae $end
$var wire 2 J alusrcbe [1:0] $end
$var wire 1 K regwritew $end
$var wire 3 L immsrcd [2:0] $end
$var wire 4 M alucontrole [3:0] $end
$var wire 1 7 zeroe $end
$var wire 1 8 signe $end
$var wire 32 # pcf [31:0] $end
$var wire 32 N instrf [31:0] $end
$var wire 32 % instrd [31:0] $end
$var wire 32 & aluresultm [31:0] $end
$var wire 32 ' writedatam [31:0] $end
$var wire 32 O readdatam [31:0] $end
$var wire 2 P forwardae [1:0] $end
$var wire 2 Q forwardbe [1:0] $end
$var wire 5 9 rs1d [4:0] $end
$var wire 5 : rs2d [4:0] $end
$var wire 5 ; rs1e [4:0] $end
$var wire 5 < rs2e [4:0] $end
$var wire 5 = rde [4:0] $end
$var wire 5 > rdm [4:0] $end
$var wire 5 ? rdw [4:0] $end
$var wire 1 R stalld $end
$var wire 1 S stallf $end
$var wire 1 T flushd $end
$var wire 1 U flushe $end
$var wire 32 V pcd [31:0] $end
$var wire 32 W pce [31:0] $end
$var wire 32 X aluresulte [31:0] $end
$var wire 32 Y aluresultw [31:0] $end
$var wire 32 Z readdataw [31:0] $end
$var wire 32 [ pcnextf [31:0] $end
$var wire 32 \ pcplus4f [31:0] $end
$var wire 32 ] pcplus4d [31:0] $end
$var wire 32 ^ pcplus4e [31:0] $end
$var wire 32 _ pcplus4m [31:0] $end
$var wire 32 ` pcplus4w [31:0] $end
$var wire 32 a pctargete [31:0] $end
$var wire 32 b branjumptargete [31:0] $end
$var wire 1 c pcjalsrcm $end
$var wire 32 d writedatae [31:0] $end
$var wire 32 e immextd [31:0] $end
$var wire 32 f immexte [31:0] $end
$var wire 32 g srcaefor [31:0] $end
$var wire 32 h srcae [31:0] $end
$var wire 32 i srcbe [31:0] $end
$var wire 32 j rd1d [31:0] $end
$var wire 32 k rd2d [31:0] $end
$var wire 32 l rd1e [31:0] $end
$var wire 32 m rd2e [31:0] $end
$var wire 32 n resultw [31:0] $end
$var wire 5 o rdd [4:0] $end
$scope module u_jal_r $end
$var wire 32 a d0 [31:0] $end
$var wire 32 X d1 [31:0] $end
$var wire 1 c s $end
$var wire 32 b y [31:0] $end
$upscope $end
$scope module u_pcmux $end
$var wire 32 \ d0 [31:0] $end
$var wire 32 b d1 [31:0] $end
$var wire 1 H s $end
$var wire 32 [ y [31:0] $end
$upscope $end
$scope module u_if $end
$var wire 1 D clk $end
$var wire 1 E reset $end
$var wire 1 p en $end
$var wire 32 [ d [31:0] $end
$var reg 32 q q [31:0] $end
$upscope $end
$scope module u_pcadd4 $end
$var wire 32 # a [31:0] $end
$var wire 32 r b [31:0] $end
$var wire 32 \ y [31:0] $end
$upscope $end
$scope module u_if_id $end
$var wire 1 D clk $end
$var wire 1 E reset $end
$var wire 1 T clear $end
$var wire 1 s enable $end
$var wire 32 N instrf [31:0] $end
$var wire 32 # pcf [31:0] $end
$var wire 32 \ pcplus4f [31:0] $end
$var reg 32 t instrd [31:0] $end
$var reg 32 u pcd [31:0] $end
$var reg 32 v pcplus4d [31:0] $end
$upscope $end
$scope module u_rf $end
$var wire 1 D clk $end
$var wire 1 K we3 $end
$var wire 5 9 a1 [4:0] $end
$var wire 5 : a2 [4:0] $end
$var wire 5 ? a3 [4:0] $end
$var wire 32 n wd3 [31:0] $end
$var wire 32 j rd1 [31:0] $end
$var wire 32 k rd2 [31:0] $end
$upscope $end
$scope module u_ext $end
$var wire 32 w instr [31:0] $end
$var wire 3 L immsrc [2:0] $end
$var reg 32 x immext [31:0] $end
$upscope $end
$scope module u_id_iex $end
$var wire 1 D clk $end
$var wire 1 E reset $end
$var wire 1 U clear $end
$var wire 32 j rd1d [31:0] $end
$var wire 32 k rd2d [31:0] $end
$var wire 32 V pcd [31:0] $end
$var wire 5 9 rs1d [4:0] $end
$var wire 5 : rs2d [4:0] $end
$var wire 5 o rdd [4:0] $end
$var wire 32 e immextd [31:0] $end
$var wire 32 ] pcplus4d [31:0] $end
$var reg 32 y rd1e [31:0] $end
$var reg 32 z rd2e [31:0] $end
$var reg 32 { pce [31:0] $end
$var reg 5 | rs1e [4:0] $end
$var reg 5 } rs2e [4:0] $end
$var reg 5 ~ rde [4:0] $end
$var reg 32 !! immexte [31:0] $end
$var reg 32 "! pcplus4e [31:0] $end
$upscope $end
$scope module u_forwardae $end
$var wire 32 l d0 [31:0] $end
$var wire 32 n d1 [31:0] $end
$var wire 32 & d2 [31:0] $end
$var wire 2 P s [1:0] $end
$var wire 32 g y [31:0] $end
$upscope $end
$scope module u_srcamux $end
$var wire 32 g d0 [31:0] $end
$var wire 32 #! d1 [31:0] $end
$var wire 1 I s $end
$var wire 32 h y [31:0] $end
$upscope $end
$scope module u_forwardbe $end
$var wire 32 m d0 [31:0] $end
$var wire 32 n d1 [31:0] $end
$var wire 32 & d2 [31:0] $end
$var wire 2 Q s [1:0] $end
$var wire 32 d y [31:0] $end
$upscope $end
$scope module u_srcbmux $end
$var wire 32 d d0 [31:0] $end
$var wire 32 f d1 [31:0] $end
$var wire 32 a d2 [31:0] $end
$var wire 2 J s [1:0] $end
$var wire 32 i y [31:0] $end
$upscope $end
$scope module u_pcaddbranch $end
$var wire 32 W a [31:0] $end
$var wire 32 f b [31:0] $end
$var wire 32 a y [31:0] $end
$upscope $end
$scope module u_alu $end
$var wire 32 h srca [31:0] $end
$var wire 32 i srcb [31:0] $end
$var wire 4 M alucontrol [3:0] $end
$var reg 32 $! aluresult [31:0] $end
$var wire 1 7 zero $end
$var wire 1 8 sign $end
$var wire 32 %! sum [31:0] $end
$var wire 1 &! overflow $end
$upscope $end
$scope module u_iex_imem $end
$var wire 1 D clk $end
$var wire 1 E reset $end
$var wire 1 G pcjalsrce $end
$var wire 32 X aluresulte [31:0] $end
$var wire 32 d writedatae [31:0] $end
$var wire 5 = rde [4:0] $end
$var wire 32 ^ pcplus4e [31:0] $end
$var reg 32 '! aluresulm [31:0] $end
$var reg 32 (! writedatm [31:0] $end
$var reg 5 )! rdm [4:0] $end
$var reg 32 *! pcplus4m [31:0] $end
$var reg 1 +! pcjalsrcm $end
$upscope $end
$scope module u_imem_iw $end
$var wire 1 D clk $end
$var wire 1 E reset $end
$var wire 32 & aluresultm [31:0] $end
$var wire 32 O readdatam [31:0] $end
$var wire 5 > rdm [4:0] $end
$var wire 32 _ pcplus4m [31:0] $end
$var reg 32 ,! aluresultw [31:0] $end
$var reg 32 -! readdataw [31:0] $end
$var reg 5 .! rdw [4:0] $end
$var reg 32 /! pcplus4w [31:0] $end
$upscope $end
$scope module u_resultmux $end
$var wire 32 Y d0 [31:0] $end
$var wire 32 Z d1 [31:0] $end
$var wire 32 ` d2 [31:0] $end
$var wire 2 F s [1:0] $end
$var wire 32 n y [31:0] $end
$upscope $end
$upscope $end
$upscope $end
$enddefinitions $end

#0
$dumpvars
0!
b0 !!
1"
b0 "!
b0 #
b0 #!
b0 $
b0 $!
b0 %
b0 %!
b0 &
0&!
b0 '
b0 '!
bx (
b0 (!
b0 )
b0 )!
0*
b0 *!
0+
0+!
0,
b0 ,!
b0 -
b0 -!
1.
b0 .!
b0 /
b0 /!
b0 0
b0 1
b0 2
03
04
05
06
17
08
b0 9
b0 :
b0 ;
b0 <
b0 =
b0 >
b0 ?
b10000 @
b0 A
b0 B
0C
0D
1E
b0 F
0G
0H
0I
b0 J
1K
b0 L
b0 M
b0 N
bx O
b0 P
b0 Q
0R
0S
0T
0U
b0 V
b0 W
b0 X
b0 Y
b0 Z
b100 [
b100 \
b0 ]
b0 ^
b0 _
b0 `
b0 a
b0 b
0c
b0 d
bz00000 e
b0 f
b0 g
b0 h
b0 i
b0 j
b0 k
b0 l
b0 m
b0 n
b0 o
1p
b0 q
b100 r
1s
b0 t
b0 u
b0 v
bz0000000000000000000000000 w
bz00000 x
b0 y
b0 z
b0 {
b0 |
b0 }
b0 ~
$end

#5000
1!
b10011 $
1D
b10011 N

#10000
0!
0D

#15000
1!
1D

#20000
0!
0"
0D
0E

#25000
1!
bz00000 !!
b100 #
b111100000000000010010011 $
b10011 %
bx -!
b1 A
1D
b111100000000000010010011 N
bx Z
b1000 [
b1000 \
b100 ]
bx a
bx b
bz00000 f
b100 q
b10011 t
b100 v

#30000
0!
0D

#35000
1!
b100 "!
b1000 #
b1000000000000000100010011 $
b111100000000000010010011 %
b1111 :
b10 A
1D
b1000000000000000100010011 N
b100 V
b1100 [
b1100 \
b1000 ]
b100 ^
bx k
b1 o
b1000 q
b111100000000000010010011 t
b100 u
b1000 v
bz0000000011110000000000001 w

#40000
0!
0D

#45000
1!
b1000 "!
b1100 #
b1000001000000110110011 $
bx $!
b1000000000000000100010011 %
bx %!
x&!
b100 *!
x7
x8
b10000 :
b1111 <
b1 =
b11 A
1D
b1000001000000110110011 N
b1000 V
b100 W
bx X
b10000 [
b10000 \
b1100 ]
b1000 ^
b100 _
bx d
bx i
bx m
b10 o
b1100 q
b1000000000000000100010011 t
b1000 u
b1100 v
bz0000000100000000000000010 w
bx z
b100 {
b1111 }
b1 ~

#50000
0!
0D

#55000
1!
b1100 "!
b10000 #
b10011 $
b1000001000000110110011 %
bx &
bx '
bx '!
bx (!
b1 )!
b1000 *!
b100 /!
b1 9
b10 :
b10000 <
b10 =
b1 >
b100 A
1D
b10011 N
b1100 V
b1000 W
b10100 [
b10100 \
b10000 ]
b1100 ^
b1000 _
b100 `
bx j
b11 o
b10000 q
b1000001000000110110011 t
b1100 u
b10000 v
bz0000000000100000100000011 w
b1000 {
b10000 }
b10 ~

#60000
0!
0D

#65000
1!
b10000 "!
b10100 #
b10011 %
b10 )!
b1100 *!
bx ,!
b1 .!
b1000 /!
b0 9
b0 :
b1 ;
b10 <
b11 =
b10 >
b1 ?
b101 A
1D
b10000 V
b1100 W
bx Y
b11000 [
b11000 \
b10100 ]
b10000 ^
b1100 _
b1000 `
bx g
bx h
b0 j
b0 k
bx l
bx n
b0 o
b10100 q
b10011 t
b10000 u
b10100 v
bz0000000000000000000000000 w
bx y
b1100 {
b1 |
b10 }
b11 ~

#70000
0!
0D

#75000
1!
b10100 "!
b11000 #
b0 $!
b0 %!
0&!
b11 )!
b10000 *!
b10 .!
b1100 /!
17
08
b0 ;
b0 <
b0 =
b11 >
b10 ?
b110 A
1D
b10100 V
b10000 W
b0 X
b11100 [
b11100 \
b11000 ]
b10100 ^
b10000 _
b1100 `
b0 d
b0 g
b0 h
b0 i
b0 l
b0 m
b11000 q
b10100 u
b11000 v
b0 y
b0 z
b10000 {
b0 |
b0 }
b0 ~

#80000
0!
0D

#85000
1!
b11000 "!
b11100 #
b0 &
b0 '
b0 '!
b0 (!
b0 )!
b10100 *!
b11 .!
b10000 /!
b0 >
b11 ?
b111 A
1D
b11000 V
b10100 W
b100000 [
b100000 \
b11100 ]
b11000 ^
b10100 _
b10000 `
b11100 q
b11000 u
b11100 v
b10100 {

#90000
0!
0D

#95000
1!
b11100 "!
b100000 #
b11000 *!
b0 ,!
b0 .!
b10100 /!
b0 ?
b1000 A
1D
b11100 V
b11000 W
b0 Y
b100100 [
b100100 \
b100000 ]
b11100 ^
b11000 _
b10100 `
b0 n
b100000 q
b11100 u
b100000 v
b11000 {

#100000
0!
0D

#105000
1!
b100000 "!
b100100 #
b11100 *!
b11000 /!
b1001 A
1D
b100000 V
b11100 W
b101000 [
b101000 \
b100100 ]
b100000 ^
b11100 _
b11000 `
b100100 q
b100000 u
b100100 v
b11100 {

#110000
0!
0D

#115000
1!
b100100 "!
b101000 #
b100000 *!
b11100 /!
b1010 A
1D
b100100 V
b100000 W
b101100 [
b101100 \
b101000 ]
b100100 ^
b100000 _
b11100 `
b101000 q
b100100 u
b101000 v
b100000 {

#120000
0!
0D

#125000
1!
b101000 "!
b101100 #
b100100 *!
b100000 /!
b1011 A
1D
b101000 V
b100100 W
b110000 [
b110000 \
b101100 ]
b101000 ^
b100100 _
b100000 `
b101100 q
b101000 u
b101100 v
b100100 {

#130000
0!
0D

#135000
1!
b101100 "!
b110000 #
b101000 *!
b100100 /!
b1100 A
1D
b101100 V
b101000 W
b110100 [
b110100 \
b110000 ]
b101100 ^
b101000 _
b100100 `
b110000 q
b101100 u
b110000 v
b101000 {

#140000
0!
0D

#145000
1!
b110000 "!
b110100 #
b101100 *!
b101000 /!
b1101 A
1D
b110000 V
b101100 W
b111000 [
b111000 \
b110100 ]
b110000 ^
b101100 _
b101000 `
b110100 q
b110000 u
b110100 v
b101100 {

#150000
0!
0D

#155000
1!
b110100 "!
b111000 #
b110000 *!
b101100 /!
b1110 A
1D
b110100 V
b110000 W
b111100 [
b111100 \
b111000 ]
b110100 ^
b110000 _
b101100 `
b111000 q
b110100 u
b111000 v
b110000 {

#160000
0!
0D

#165000
1!
b111000 "!
b111100 #
b110100 *!
b110000 /!
b1111 A
1D
b111000 V
b110100 W
b1000000 [
b1000000 \
b111100 ]
b111000 ^
b110100 _
b110000 `
b111100 q
b111000 u
b111100 v
b110100 {

#170000
0!
0D

#175000
1!
b111100 "!
b1000000 #
b111000 *!
b110100 /!
b10000 A
1D
b111100 V
b111000 W
b1000100 [
b1000100 \
b1000000 ]
b111100 ^
b111000 _
b110100 `
b1000000 q
b111100 u
b1000000 v
b111000 {

#180000
0!
0D

#185000
1!
b1000000 "!
b1000100 #
b111100 *!
b111000 /!
b10001 A
1D
b1000000 V
b111100 W
b1001000 [
b1001000 \
b1000100 ]
b1000000 ^
b111100 _
b111000 `
b1000100 q
b1000000 u
b1000100 v
b111100 {

#190000
0!
0D

#195000
1!
b1000100 "!
b1001000 #
b1000000 *!
b111100 /!
b10010 A
1D
b1000100 V
b1000000 W
b1001100 [
b1001100 \
b1001000 ]
b1000100 ^
b1000000 _
b111100 `
b1001000 q
b1000100 u
b1001000 v
b1000000 {

#200000
0!
0D

#205000
1!
b1001000 "!
b1001100 #
b1000100 *!
b1000000 /!
b10011 A
1D
b1001000 V
b1000100 W
b1010000 [
b1010000 \
b1001100 ]
b1001000 ^
b1000100 _
b1000000 `
b1001100 q
b1001000 u
b1001100 v
b1000100 {

#210000
0!
0D

#215000
1!
b1001100 "!
b1010000 #
b1001000 *!
b1000100 /!
b10100 A
1D
b1001100 V
b1001000 W
b1010100 [
b1010100 \
b1010000 ]
b1001100 ^
b1001000 _
b1000100 `
b1010000 q
b1001100 u
b1010000 v
b1001000 {

#220000
0!
0D

#225000
1!
b1010000 "!
b1010100 #
b1001100 *!
b1001000 /!
b10101 A
1D
b1010000 V
b1001100 W
b1011000 [
b1011000 \
b1010100 ]
b1010000 ^
b1001100 _
b1001000 `
b1010100 q
b1010000 u
b1010100 v
b1001100 {

#230000
0!
0D

#235000
1!
b1010100 "!
b1011000 #
b1010000 *!
b1001100 /!
b10110 A
1D
b1010100 V
b1010000 W
b1011100 [
b1011100 \
b1011000 ]
b1010100 ^
b1010000 _
b1001100 `
b1011000 q
b1010100 u
b1011000 v
b1010000 {

#240000
0!
0D

#245000
1!
b1011000 "!
b1011100 #
b1010100 *!
b1010000 /!
b10111 A
1D
b1011000 V
b1010100 W
b1100000 [
b1100000 \
b1011100 ]
b1011000 ^
b1010100 _
b1010000 `
b1011100 q
b1011000 u
b1011100 v
b1010100 {

#250000
0!
0D

#255000
1!
b1011100 "!
b1100000 #
b1011000 *!
b1010100 /!
b11000 A
1D
b1011100 V
b1011000 W
b1100100 [
b1100100 \
b1100000 ]
b1011100 ^
b1011000 _
b1010100 `
b1100000 q
b1011100 u
b1100000 v
b1011000 {

#260000
0!
0D

#265000
1!
b1100000 "!
b1100100 #
b1011100 *!
b1011000 /!
b11001 A
1D
b1100000 V
b1011100 W
b1101000 [
b1101000 \
b1100100 ]
b1100000 ^
b1011100 _
b1011000 `
b1100100 q
b1100000 u
b1100100 v
b1011100 {

#270000
0!
0D

#275000
1!
b1100100 "!
b1101000 #
b1100000 *!
b1011100 /!
b11010 A
1D
b1100100 V
b1100000 W
b1101100 [
b1101100 \
b1101000 ]
b1100100 ^
b1100000 _
b1011100 `
b1101000 q
b1100100 u
b1101000 v
b1100000 {

#280000
0!
0D

#285000
1!
b1101000 "!
b1101100 #
b1100100 *!
b1100000 /!
b11011 A
1D
b1101000 V
b1100100 W
b1110000 [
b1110000 \
b1101100 ]
b1101000 ^
b1100100 _
b1100000 `
b1101100 q
b1101000 u
b1101100 v
b1100100 {

#290000
0!
0D

#295000
1!
b1101100 "!
b1110000 #
b1101000 *!
b1100100 /!
b11100 A
1D
b1101100 V
b1101000 W
b1110100 [
b1110100 \
b1110000 ]
b1101100 ^
b1101000 _
b1100100 `
b1110000 q
b1101100 u
b1110000 v
b1101000 {

#300000
0!
0D

#305000
1!
b1110000 "!
b1110100 #
b1101100 *!
b1101000 /!
b11101 A
1D
b1110000 V
b1101100 W
b1111000 [
b1111000 \
b1110100 ]
b1110000 ^
b1101100 _
b1101000 `
b1110100 q
b1110000 u
b1110100 v
b1101100 {

#310000
0!
0D

#315000
1!
b1110100 "!
b1111000 #
b1110000 *!
b1101100 /!
b11110 A
1D
b1110100 V
b1110000 W
b1111100 [
b1111100 \
b1111000 ]
b1110100 ^
b1110000 _
b1101100 `
b1111000 q
b1110100 u
b1111000 v
b1110000 {

#320000
0!
0D

#325000
1!
b1111000 "!
b1111100 #
b1110100 *!
b1110000 /!
b11111 A
1D
b1111000 V
b1110100 W
b10000000 [
b10000000 \
b1111100 ]
b1111000 ^
b1110100 _
b1110000 `
b1111100 q
b1111000 u
b1111100 v
b1110100 {

#330000
0!
0D

#335000
1!
b1111100 "!
b10000000 #
b1111000 *!
b1110100 /!
b100000 A
1D
b1111100 V
b1111000 W
b10000100 [
b10000100 \
b10000000 ]
b1111100 ^
b1111000 _
b1110100 `
b10000000 q
b1111100 u
b10000000 v
b1111000 {

#340000
0!
0D

#345000
1!
b10000000 "!
b10000100 #
b1111100 *!
b1111000 /!
b100001 A
1D
b10000000 V
b1111100 W
b10001000 [
b10001000 \
b10000100 ]
b10000000 ^
b1111100 _
b1111000 `
b10000100 q
b10000000 u
b10000100 v
b1111100 {

#350000
0!
0D

#355000
1!
b10000100 "!
b10001000 #
b10000000 *!
b1111100 /!
b100010 A
1D
b10000100 V
b10000000 W
b10001100 [
b10001100 \
b10001000 ]
b10000100 ^
b10000000 _
b1111100 `
b10001000 q
b10000100 u
b10001000 v
b10000000 {

#360000
0!
0D

#365000
1!
b10001000 "!
b10001100 #
b10000100 *!
b10000000 /!
b100011 A
1D
b10001000 V
b10000100 W
b10010000 [
b10010000 \
b10001100 ]
b10001000 ^
b10000100 _
b10000000 `
b10001100 q
b10001000 u
b10001100 v
b10000100 {

#370000
0!
0D

#375000
1!
b10001100 "!
b10010000 #
b10001000 *!
b10000100 /!
b100100 A
1D
b10001100 V
b10001000 W
b10010100 [
b10010100 \
b10010000 ]
b10001100 ^
b10001000 _
b10000100 `
b10010000 q
b10001100 u
b10010000 v
b10001000 {

#380000
0!
0D

#385000
1!
b10010000 "!
b10010100 #
b10001100 *!
b10001000 /!
b100101 A
1D
b10010000 V
b10001100 W
b10011000 [
b10011000 \
b10010100 ]
b10010000 ^
b10001100 _
b10001000 `
b10010100 q
b10010000 u
b10010100 v
b10001100 {

#390000
0!
0D

#395000
1!
b10010100 "!
b10011000 #
b10010000 *!
b10001100 /!
b100110 A
1D
b10010100 V
b10010000 W
b10011100 [
b10011100 \
b10011000 ]
b10010100 ^
b10010000 _
b10001100 `
b10011000 q
b10010100 u
b10011000 v
b10010000 {

#400000
0!
0D

#405000
1!
b10011000 "!
b10011100 #
b10010100 *!
b10010000 /!
b100111 A
1D
b10011000 V
b10010100 W
b10100000 [
b10100000 \
b10011100 ]
b10011000 ^
b10010100 _
b10010000 `
b10011100 q
b10011000 u
b10011100 v
b10010100 {

#410000
0!
0D

#415000
1!
b10011100 "!
b10100000 #
b10011000 *!
b10010100 /!
b101000 A
1D
b10011100 V
b10011000 W
b10100100 [
b10100100 \
b10100000 ]
b10011100 ^
b10011000 _
b10010100 `
b10100000 q
b10011100 u
b10100000 v
b10011000 {

#420000
0!
0D

#425000
1!
b10100000 "!
b10100100 #
b10011100 *!
b10011000 /!
b101001 A
1D
b10100000 V
b10011100 W
b10101000 [
b10101000 \
b10100100 ]
b10100000 ^
b10011100 _
b10011000 `
b10100100 q
b10100000 u
b10100100 v
b10011100 {

#430000
0!
0D

#435000
1!
b10100100 "!
b10101000 #
b10100000 *!
b10011100 /!
b101010 A
1D
b10100100 V
b10100000 W
b10101100 [
b10101100 \
b10101000 ]
b10100100 ^
b10100000 _
b10011100 `
b10101000 q
b10100100 u
b10101000 v
b10100000 {

#440000
0!
0D

#445000
1!
b10101000 "!
b10101100 #
b10100100 *!
b10100000 /!
b101011 A
1D
b10101000 V
b10100100 W
b10110000 [
b10110000 \
b10101100 ]
b10101000 ^
b10100100 _
b10100000 `
b10101100 q
b10101000 u
b10101100 v
b10100100 {

#450000
0!
0D

#455000
1!
b10101100 "!
b10110000 #
b10101000 *!
b10100100 /!
b101100 A
1D
b10101100 V
b10101000 W
b10110100 [
b10110100 \
b10110000 ]
b10101100 ^
b10101000 _
b10100100 `
b10110000 q
b10101100 u
b10110000 v
b10101000 {

#460000
0!
0D

#465000
1!
b10110000 "!
b10110100 #
b10101100 *!
b10101000 /!
b101101 A
1D
b10110000 V
b10101100 W
b10111000 [
b10111000 \
b10110100 ]
b10110000 ^
b10101100 _
b10101000 `
b10110100 q
b10110000 u
b10110100 v
b10101100 {

#470000
0!
0D

#475000
1!
b10110100 "!
b10111000 #
b10110000 *!
b10101100 /!
b101110 A
1D
b10110100 V
b10110000 W
b10111100 [
b10111100 \
b10111000 ]
b10110100 ^
b10110000 _
b10101100 `
b10111000 q
b10110100 u
b10111000 v
b10110000 {

#480000
0!
0D

#485000
1!
b10111000 "!
b10111100 #
b10110100 *!
b10110000 /!
b101111 A
1D
b10111000 V
b10110100 W
b11000000 [
b11000000 \
b10111100 ]
b10111000 ^
b10110100 _
b10110000 `
b10111100 q
b10111000 u
b10111100 v
b10110100 {

#490000
0!
0D

#495000
1!
b10111100 "!
b11000000 #
b10111000 *!
b10110100 /!
b110000 A
1D
b10111100 V
b10111000 W
b11000100 [
b11000100 \
b11000000 ]
b10111100 ^
b10111000 _
b10110100 `
b11000000 q
b10111100 u
b11000000 v
b10111000 {

#500000
0!
0D

#505000
1!
b11000000 "!
b11000100 #
b10111100 *!
b10111000 /!
b110001 A
1D
b11000000 V
b10111100 W
b11001000 [
b11001000 \
b11000100 ]
b11000000 ^
b10111100 _
b10111000 `
b11000100 q
b11000000 u
b11000100 v
b10111100 {

#510000
0!
0D

#515000
1!
b11000100 "!
b11001000 #
b11000000 *!
b10111100 /!
b110010 A
1D
b11000100 V
b11000000 W
b11001100 [
b11001100 \
b11001000 ]
b11000100 ^
b11000000 _
b10111100 `
b11001000 q
b11000100 u
b11001000 v
b11000000 {

#520000
0!
0D

#525000
1!
b11001000 "!
b11001100 #
b11000100 *!
b11000000 /!
b110011 A
1D
b11001000 V
b11000100 W
b11010000 [
b11010000 \
b11001100 ]
b11001000 ^
b11000100 _
b11000000 `
b11001100 q
b11001000 u
b11001100 v
b11000100 {

#530000
0!
0D

#535000
1!
b11001100 "!
b11010000 #
b11001000 *!
b11000100 /!
b110100 A
1D
b11001100 V
b11001000 W
b11010100 [
b11010100 \
b11010000 ]
b11001100 ^
b11001000 _
b11000100 `
b11010000 q
b11001100 u
b11010000 v
b11001000 {

#540000
0!
0D

#545000
1!
b11010000 "!
b11010100 #
b11001100 *!
b11001000 /!
b110101 A
1D
b11010000 V
b11001100 W
b11011000 [
b11011000 \
b11010100 ]
b11010000 ^
b11001100 _
b11001000 `
b11010100 q
b11010000 u
b11010100 v
b11001100 {

#550000
0!
0D

#555000
1!
b11010100 "!
b11011000 #
b11010000 *!
b11001100 /!
b110110 A
1D
b11010100 V
b11010000 W
b11011100 [
b11011100 \
b11011000 ]
b11010100 ^
b11010000 _
b11001100 `
b11011000 q
b11010100 u
b11011000 v
b11010000 {

#560000
0!
0D

#565000
1!
b11011000 "!
b11011100 #
b11010100 *!
b11010000 /!
b110111 A
1D
b11011000 V
b11010100 W
b11100000 [
b11100000 \
b11011100 ]
b11011000 ^
b11010100 _
b11010000 `
b11011100 q
b11011000 u
b11011100 v
b11010100 {

#570000
0!
0D

#575000
1!
b11011100 "!
b11100000 #
b11011000 *!
b11010100 /!
b111000 A
1D
b11011100 V
b11011000 W
b11100100 [
b11100100 \
b11100000 ]
b11011100 ^
b11011000 _
b11010100 `
b11100000 q
b11011100 u
b11100000 v
b11011000 {

#580000
0!
0D

#585000
1!
b11100000 "!
b11100100 #
b11011100 *!
b11011000 /!
b111001 A
1D
b11100000 V
b11011100 W
b11101000 [
b11101000 \
b11100100 ]
b11100000 ^
b11011100 _
b11011000 `
b11100100 q
b11100000 u
b11100100 v
b11011100 {

#590000
0!
0D

#595000
1!
b11100100 "!
b11101000 #
b11100000 *!
b11011100 /!
b111010 A
1D
b11100100 V
b11100000 W
b11101100 [
b11101100 \
b11101000 ]
b11100100 ^
b11100000 _
b11011100 `
b11101000 q
b11100100 u
b11101000 v
b11100000 {

#600000
0!
0D

#605000
1!
b11101000 "!
b11101100 #
b11100100 *!
b11100000 /!
b111011 A
1D
b11101000 V
b11100100 W
b11110000 [
b11110000 \
b11101100 ]
b11101000 ^
b11100100 _
b11100000 `
b11101100 q
b11101000 u
b11101100 v
b11100100 {

#610000
0!
0D

#615000
1!
b11101100 "!
b11110000 #
b11101000 *!
b11100100 /!
b111100 A
1D
b11101100 V
b11101000 W
b11110100 [
b11110100 \
b11110000 ]
b11101100 ^
b11101000 _
b11100100 `
b11110000 q
b11101100 u
b11110000 v
b11101000 {

#620000
0!
0D

#625000
1!
b11110000 "!
b11110100 #
b11101100 *!
b11101000 /!
b111101 A
1D
b11110000 V
b11101100 W
b11111000 [
b11111000 \
b11110100 ]
b11110000 ^
b11101100 _
b11101000 `
b11110100 q
b11110000 u
b11110100 v
b11101100 {

#630000
0!
0D

#635000
1!
b11110100 "!
b11111000 #
b11110000 *!
b11101100 /!
b111110 A
1D
b11110100 V
b11110000 W
b11111100 [
b11111100 \
b11111000 ]
b11110100 ^
b11110000 _
b11101100 `
b11111000 q
b11110100 u
b11111000 v
b11110000 {

#640000
0!
0D

#645000
1!
b11111000 "!
b11111100 #
b11110100 *!
b11110000 /!
b111111 A
1D
b11111000 V
b11110100 W
b100000000 [
b100000000 \
b11111100 ]
b11111000 ^
b11110100 _
b11110000 `
b11111100 q
b11111000 u
b11111100 v
b11110100 {

#650000
0!
0D

#655000
1!
b11111100 "!
b100000000 #
b11111000 *!
b11110100 /!
b1000000 A
1D
b11111100 V
b11111000 W
b100000100 [
b100000100 \
b100000000 ]
b11111100 ^
b11111000 _
b11110100 `
b100000000 q
b11111100 u
b100000000 v
b11111000 {

#660000
0!
0D

#665000
1!
b100000000 "!
b100000100 #
b11111100 *!
b11111000 /!
b1000001 A
1D
b100000000 V
b11111100 W
b100001000 [
b100001000 \
b100000100 ]
b100000000 ^
b11111100 _
b11111000 `
b100000100 q
b100000000 u
b100000100 v
b11111100 {

#670000
0!
0D

#675000
1!
b100000100 "!
b100001000 #
b100000000 *!
b11111100 /!
b1000010 A
1D
b100000100 V
b100000000 W
b100001100 [
b100001100 \
b100001000 ]
b100000100 ^
b100000000 _
b11111100 `
b100001000 q
b100000100 u
b100001000 v
b100000000 {

#680000
0!
0D

#685000
1!
b100001000 "!
b100001100 #
b100000100 *!
b100000000 /!
b1000011 A
1D
b100001000 V
b100000100 W
b100010000 [
b100010000 \
b100001100 ]
b100001000 ^
b100000100 _
b100000000 `
b100001100 q
b100001000 u
b100001100 v
b100000100 {

#690000
0!
0D

#695000
1!
b100001100 "!
b100010000 #
b100001000 *!
b100000100 /!
b1000100 A
1D
b100001100 V
b100001000 W
b100010100 [
b100010100 \
b100010000 ]
b100001100 ^
b100001000 _
b100000100 `
b100010000 q
b100001100 u
b100010000 v
b100001000 {

#700000
0!
0D

